<?xml version="1.0" encoding="utf-8"?>
<!-- Generator: Adobe Illustrator 26.0.3, SVG Export Plug-In . SVG Version: 6.00 Build 0)  -->
<svg version="1.1" id="Capa_1" xmlns="http://www.w3.org/2000/svg" xmlns:xlink="http://www.w3.org/1999/xlink" x="0px" y="0px"
	 viewBox="0 0 1366 351" style="enable-background:new 0 0 1366 351;" xml:space="preserve">
<style type="text/css">
	.st0{fill:#FFFFFF;}
	.st1{fill:#D2B258;}
	.st2{fill:#FFFFFF;stroke:#D2B258;stroke-width:1.1244;stroke-miterlimit:10;}
	.st3{fill:#FFFFFF;stroke:#D2B258;stroke-width:2.3865;stroke-miterlimit:10;}
	.st4{fill-rule:evenodd;clip-rule:evenodd;fill:#D2B258;}
</style>
<rect class="st0" width="1366" height="351"/>
<g>
	
		<rect x="680.17" y="-596.84" transform="matrix(-1.836970e-16 1 -1 -1.836970e-16 769.16 -595.84)" class="st1" width="4.66" height="1367"/>
	
		<rect x="680.17" y="-584.18" transform="matrix(-1.836970e-16 1 -1 -1.836970e-16 781.8167 -583.1833)" class="st1" width="4.66" height="1367"/>
	
		<rect x="680.17" y="-572.86" transform="matrix(-1.836970e-16 1 -1 -1.836970e-16 793.1411 -571.859)" class="st1" width="4.66" height="1367"/>
	
		<rect x="680.17" y="-560.2" transform="matrix(-1.836970e-16 1 -1 -1.836970e-16 805.7977 -559.2024)" class="st1" width="4.66" height="1367"/>
	
		<rect x="680.17" y="-548.88" transform="matrix(-1.836970e-16 1 -1 -1.836970e-16 817.1221 -547.878)" class="st1" width="4.66" height="1367"/>
	
		<rect x="680.17" y="-536.22" transform="matrix(-1.836970e-16 1 -1 -1.836970e-16 829.7787 -535.2214)" class="st1" width="4.66" height="1367"/>
	
		<rect x="680.17" y="-524.4" transform="matrix(-1.836970e-16 1 -1 -1.836970e-16 841.6027 -523.3974)" class="st1" width="4.66" height="1367"/>
	
		<rect x="680.17" y="-511.74" transform="matrix(-1.836970e-16 1 -1 -1.836970e-16 854.2593 -510.7408)" class="st1" width="4.66" height="1367"/>
	
		<rect x="680.17" y="-501.92" transform="matrix(-1.836970e-16 1 -1 -1.836970e-16 864.0848 -500.9152)" class="st1" width="4.66" height="1367"/>
	
		<rect x="680.17" y="-489.26" transform="matrix(-1.836970e-16 1 -1 -1.836970e-16 876.7415 -488.2586)" class="st1" width="4.66" height="1367"/>
	
		<rect x="680.17" y="-477.43" transform="matrix(-1.836970e-16 1 -1 -1.836970e-16 888.5654 -476.4346)" class="st1" width="4.66" height="1367"/>
	
		<rect x="680.17" y="-464.78" transform="matrix(-1.836970e-16 1 -1 -1.836970e-16 901.2221 -463.778)" class="st1" width="4.66" height="1367"/>
	
		<rect x="680.17" y="-453.45" transform="matrix(-1.836970e-16 1 -1 -1.836970e-16 912.5464 -452.4536)" class="st1" width="4.66" height="1367"/>
	
		<rect x="680.17" y="-440.8" transform="matrix(-1.836970e-16 1 -1 -1.836970e-16 925.2031 -439.797)" class="st1" width="4.66" height="1367"/>
	
		<rect x="680.17" y="-429.47" transform="matrix(-1.836970e-16 1 -1 -1.836970e-16 936.5275 -428.4726)" class="st1" width="4.66" height="1367"/>
</g>
<g>
	<polygon class="st2" points="1121.71,33.07 1207.34,173.66 1121.71,310.51 221.69,310.51 140.93,173.66 221.69,33.07 	"/>
	<polygon class="st3" points="238.52,23.93 1104.89,23.93 1193.13,173.87 1104.51,319.69 238.52,319.69 154.01,173.87 	"/>
</g>
<g>
	<g>
		<path class="st1" d="M789.2,139.05v14.22l0.12,2.79c0.12,1.3,0.45,2.23,0.97,2.79c0.53,0.57,1.42,0.93,2.67,1.09l3.1,0.24v0.97
			H766.9v-0.97h1.88c0.89-0.12,1.74-0.23,2.55-0.33c0.81-0.1,1.45-0.4,1.91-0.91c0.46-0.51,0.76-1.41,0.88-2.7l0.12-2.79v-28.8
			l-0.12-2.79c-0.12-1.3-0.43-2.21-0.91-2.73c-0.49-0.53-1.18-0.85-2.07-0.97c-0.89-0.12-1.66-0.19-2.31-0.21
			c-0.65-0.02-1.26-0.05-1.82-0.09v-0.97l27.16-0.06c3.77,0,6.82,0.16,9.17,0.49c2.35,0.32,4.26,0.97,5.74,1.94
			c1.48,0.97,2.65,2.18,3.52,3.61c0.87,1.44,1.31,3.11,1.31,5.01c0,1.42-0.25,2.83-0.76,4.25c-0.51,1.42-1.29,2.63-2.34,3.64
			c-1.05,1.01-2.36,1.8-3.92,2.37c-1.56,0.57-4.04,0.85-7.44,0.85v0.43c2.07,0.45,3.8,0.87,5.19,1.28c1.4,0.41,2.66,1,3.8,1.77
			c1.13,0.77,2.16,1.92,3.07,3.44c0.91,1.53,1.65,3.19,2.22,5c0.57,1.81,1.07,3.09,1.52,3.84c0.45,0.75,1.07,1.13,1.88,1.13
			c1.05,0,1.75-0.68,2.1-2.04c0.34-1.36,0.52-2.91,0.52-4.65h0.97c0,1.98-0.12,3.56-0.36,4.74c-0.24,1.18-0.85,2.4-1.82,3.68
			c-0.97,1.28-2.36,2.31-4.16,3.1c-1.8,0.79-3.76,1.18-5.86,1.18c-3.28,0-5.9-0.94-7.87-2.83c-1.96-1.89-3.18-4.37-3.64-7.43
			c-0.47-3.07-0.84-5.65-1.12-7.77c-0.45-2.35-1.03-3.72-1.76-4.11c-0.73-0.38-1.52-0.6-2.37-0.64
			C790.9,139.07,790.05,139.05,789.2,139.05z M794.06,137.78c1.54-0.24,2.7-1.36,3.49-3.34c0.79-1.98,1.18-4.19,1.18-6.62
			c0-1.98-0.41-3.94-1.21-5.86c-0.81-1.92-1.78-3.05-2.92-3.37c-1.13-0.32-2.15-0.51-3.04-0.55c-0.89-0.04-1.68-0.08-2.37-0.12
			v20.05h2.07C792.4,137.96,793.33,137.9,794.06,137.78z"/>
		<path class="st1" d="M844.6,159.95c1.7-0.04,3.44-0.07,5.22-0.09c1.78-0.02,3.66-0.16,5.65-0.42c1.98-0.26,4.43-2.27,7.35-6.01
			c2.92-3.75,5.06-7.6,6.44-11.57h0.97v19.32h-47.75v-0.97c0.53,0,1.13-0.03,1.82-0.09c0.69-0.06,1.47-0.14,2.34-0.24
			c0.87-0.1,1.54-0.4,2.01-0.91c0.47-0.51,0.76-1.41,0.88-2.7l0.12-2.79v-28.8l-0.12-2.79c-0.12-1.3-0.43-2.21-0.91-2.73
			c-0.49-0.53-1.16-0.85-2.04-0.97c-0.87-0.12-1.66-0.19-2.37-0.21c-0.71-0.02-1.35-0.05-1.91-0.09v-0.97h46.72v17.98h-0.97
			c-2.07-4.54-4.58-8.35-7.53-11.45c-2.96-3.1-5.44-4.75-7.44-4.95c-2-0.2-3.7-0.32-5.07-0.36c-1.38-0.04-2.29-0.06-2.73-0.06h-0.55
			l-0.12,19.93l2.55-0.12c2.35-0.24,4.12-1.35,5.32-3.31c1.19-1.96,1.79-4.28,1.79-6.96h1.15v22.11h-1.15c0-2.71-0.6-5.08-1.79-7.11
			c-1.19-2.02-2.97-3.16-5.32-3.4l-2.55-0.12V159.95z"/>
		<path class="st1" d="M926.37,117.85c-0.53,0.04-1.12,0.08-1.79,0.12c-0.67,0.04-1.56,0.14-2.67,0.3
			c-1.11,0.16-1.96,0.65-2.55,1.46c-0.59,0.81-0.94,1.86-1.06,3.16l-0.12,2.92v18.04l-0.12,3.04c-0.61,5.59-2.13,9.49-4.56,11.69
			c-2.43,2.21-6.2,3.31-11.3,3.31c-6.72,0-11.91-1.28-15.55-3.83c-3.65-2.55-5.47-5.73-5.47-9.54v-23.94l-0.12-2.79
			c-0.12-1.3-0.4-2.2-0.82-2.7s-1.27-0.84-2.52-1l-2.55-0.24v-0.97h28.43v0.97c-0.53,0.04-1.12,0.07-1.79,0.09
			c-0.67,0.02-1.53,0.1-2.58,0.24c-1.05,0.14-1.78,0.44-2.19,0.88c-0.41,0.45-0.67,1.36-0.79,2.73l-0.12,2.79v24.36
			c0,0.49,0.02,1.07,0.06,1.76c0.04,0.69,0.17,1.75,0.39,3.19c0.22,1.44,1.03,2.86,2.43,4.25s3.31,2.1,5.74,2.1
			c3.4,0,5.96-0.86,7.68-2.58c1.72-1.72,2.88-3.7,3.46-5.92c0.59-2.23,0.9-4.13,0.94-5.71l0.06-2.85v-17.62l-0.12-2.92
			c-0.12-1.34-0.46-2.35-1-3.04c-0.55-0.69-1.37-1.12-2.46-1.31c-1.09-0.18-2-0.29-2.73-0.33c-0.73-0.04-1.42-0.08-2.07-0.12v-0.97
			h17.86V117.85z"/>
		<path class="st1" d="M979.83,117.85c-0.53,0.04-1.1,0.08-1.73,0.12c-0.63,0.04-1.51,0.15-2.64,0.33c-1.13,0.18-2,0.65-2.58,1.4
			c-0.59,0.75-0.94,1.77-1.06,3.07l-0.12,2.92v35.48h-7.41l-28.86-36.94h-0.24v28.37l0.12,2.92c0.12,1.34,0.46,2.33,1,2.98
			c0.55,0.65,1.38,1.06,2.49,1.25c1.11,0.18,2.07,0.29,2.85,0.33c0.79,0.04,1.33,0.08,1.61,0.12v0.97H925.7v-0.97
			c0.53-0.04,1.12-0.08,1.77-0.12c0.65-0.04,1.8-0.19,3.46-0.46c1.65-0.26,2.6-1.63,2.84-4.1l0.12-2.92v-27.64l-0.12-2.79
			c-0.53-0.85-1.16-1.64-1.9-2.37c-0.73-0.73-1.54-1.24-2.42-1.52c-0.88-0.28-1.72-0.42-2.54-0.42h-1.84v-0.97h23.24l21.84,27.94
			h0.24v-19.38l-0.12-2.92c-0.12-1.3-0.46-2.28-1-2.95c-0.55-0.67-1.37-1.09-2.46-1.28c-1.09-0.18-1.97-0.29-2.64-0.33
			c-0.67-0.04-1.29-0.08-1.85-0.12v-0.97h17.5V117.85z"/>
		<path class="st1" d="M1010.57,161.16h-28.61v-0.97c0.28,0,0.67-0.01,1.15-0.03c0.49-0.02,1.29-0.1,2.4-0.24
			c1.11-0.14,1.9-0.48,2.37-1c0.47-0.53,0.76-1.42,0.88-2.67l0.12-2.79v-28.86l-0.12-2.79c-0.12-1.3-0.4-2.2-0.82-2.7
			c-0.43-0.51-1.27-0.84-2.52-1l-3.28-0.24v-0.97h28.43v0.97l-3.28,0.18c-1.26,0.12-2.1,0.42-2.52,0.88s-0.7,1.39-0.82,2.76
			l-0.12,2.79v29.1l0.12,2.79c0.12,1.34,0.41,2.24,0.88,2.7c0.47,0.47,1.33,0.78,2.58,0.94l3.16,0.18V161.16z"/>
		<path class="st1" d="M1064.76,139.05c0,6.48-2.45,11.91-7.35,16.28c-4.9,4.37-10.69,6.56-17.37,6.56
			c-6.97,0-12.79-2.16-17.47-6.47c-4.68-4.31-7.02-9.77-7.02-16.37c0-6.8,2.39-12.31,7.17-16.52c4.78-4.21,10.55-6.32,17.31-6.32
			s12.58,2.14,17.44,6.41C1062.32,126.89,1064.76,132.37,1064.76,139.05z M1046.29,122.47c-1.21-3.4-3.3-5.1-6.26-5.1
			c-1.5,0-2.79,0.49-3.89,1.46c-1.09,0.97-1.93,2.38-2.52,4.22c-0.59,1.84-1.01,4.21-1.28,7.11c-0.26,2.9-0.4,5.86-0.4,8.9
			c0,4.17,0.16,7.57,0.49,10.21c0.32,2.63,0.93,5.2,1.82,7.72c0.89,2.51,2.81,3.77,5.77,3.77c1.5,0,2.8-0.49,3.89-1.46
			c1.09-0.97,1.93-2.38,2.52-4.22c0.59-1.84,1.01-4.21,1.28-7.11c0.26-2.9,0.4-5.86,0.4-8.9c0-3.6-0.12-6.73-0.36-9.39
			C1047.5,127.01,1047.02,124.61,1046.29,122.47z M1035.66,113.66c1.54-1.5,3.49-3.79,5.86-6.86c2.37-3.08,4.12-4.62,5.25-4.62
			c0.81,0,1.51,0.11,2.1,0.33c0.59,0.22,0.99,0.48,1.22,0.76c0.22,0.28,0.33,0.91,0.33,1.88c0,1.3-0.27,2.21-0.82,2.73
			c-0.55,0.53-1.79,1.19-3.74,2c-1.94,0.81-3.73,1.56-5.35,2.25c-1.62,0.69-3.08,1.42-4.37,2.19L1035.66,113.66z"/>
		<path class="st1" d="M1122.1,117.85c-0.53,0.04-1.1,0.08-1.73,0.12c-0.63,0.04-1.51,0.15-2.64,0.33c-1.13,0.18-1.99,0.65-2.58,1.4
			c-0.59,0.75-0.94,1.77-1.06,3.07l-0.12,2.92v35.48h-7.41l-28.86-36.94h-0.24v28.37l0.12,2.92c0.12,1.34,0.46,2.33,1,2.98
			c0.55,0.65,1.38,1.06,2.49,1.25c1.11,0.18,2.07,0.29,2.86,0.33c0.79,0.04,1.33,0.08,1.61,0.12v0.97h-17.55v-0.97
			c0.53-0.04,1.12-0.08,1.77-0.12c0.65-0.04,1.8-0.19,3.46-0.46c1.65-0.26,2.6-1.63,2.85-4.1l0.12-2.92v-27.64l-0.12-2.79
			c-0.53-0.85-1.16-1.64-1.9-2.37c-0.73-0.73-1.54-1.24-2.42-1.52c-0.88-0.28-1.72-0.42-2.54-0.42h-1.83v-0.97h23.24l21.84,27.94
			h0.24v-19.38l-0.12-2.92c-0.12-1.3-0.46-2.28-1-2.95c-0.55-0.67-1.37-1.09-2.46-1.28c-1.09-0.18-1.97-0.29-2.64-0.33
			c-0.67-0.04-1.29-0.08-1.85-0.12v-0.97h17.5V117.85z"/>
	</g>
	<g>
		<g>
			<path class="st1" d="M758,202.95V178.2h5.68c3.03,0,5.35,1.06,6.98,3.17s2.44,5.15,2.44,9.1c0,3.97-0.87,7.05-2.62,9.22
				c-1.75,2.17-4.21,3.26-7.4,3.26H758z M763.1,201.11c2.59,0,4.54-0.89,5.86-2.67c1.32-1.78,1.98-4.41,1.98-7.9
				c0-3.44-0.62-6.05-1.87-7.83c-1.25-1.78-3.07-2.67-5.48-2.67h-3.5v21.07H763.1z"/>
			<path class="st1" d="M784.38,202.95V178.2h11.96v1.84h-9.88v9.18h9.32v1.84h-9.32v10.05h10.33l-0.38,1.84H784.38z"/>
			<path class="st1" d="M820.18,202.95V178.2h5.68c3.03,0,5.35,1.06,6.98,3.17s2.44,5.15,2.44,9.1c0,3.97-0.87,7.05-2.62,9.22
				c-1.75,2.17-4.21,3.26-7.4,3.26H820.18z M825.27,201.11c2.59,0,4.54-0.89,5.86-2.67c1.32-1.78,1.98-4.41,1.98-7.9
				c0-3.44-0.62-6.05-1.87-7.83c-1.25-1.78-3.07-2.67-5.48-2.67h-3.5v21.07H825.27z"/>
			<path class="st1" d="M846.55,202.95V178.2h2.08v24.75H846.55z"/>
			<path class="st1" d="M865.17,190.75c-1.73-0.53-3.02-1.33-3.86-2.41c-0.84-1.07-1.26-2.46-1.26-4.14c0-1.27,0.28-2.41,0.83-3.41
				c0.55-1,1.34-1.79,2.36-2.36c1.02-0.57,2.19-0.85,3.54-0.85c1.83,0,3.28,0.5,4.37,1.51c1.09,1.01,1.82,2.54,2.22,4.59l-1.94,0.42
				c-0.35-1.64-0.9-2.84-1.65-3.59c-0.75-0.75-1.77-1.13-3.07-1.13c-1.43,0-2.54,0.41-3.31,1.23c-0.77,0.82-1.16,1.99-1.16,3.52
				c0,1.27,0.28,2.27,0.85,3c0.57,0.73,1.51,1.29,2.82,1.68l2.5,0.76c1.83,0.55,3.16,1.39,4,2.51c0.84,1.12,1.27,2.64,1.27,4.56
				c0,2.06-0.64,3.73-1.91,5.01s-2.93,1.92-4.99,1.92c-4.34,0-6.75-2.33-7.21-7h2.08c0.23,1.78,0.77,3.09,1.63,3.93
				c0.85,0.84,2.06,1.26,3.6,1.26c1.46,0,2.59-0.45,3.4-1.35c0.81-0.9,1.21-2.15,1.21-3.74c0-1.41-0.31-2.51-0.92-3.31
				c-0.61-0.8-1.63-1.43-3.07-1.89L865.17,190.75z"/>
			<path class="st1" d="M888.53,202.95v-22.91h-6.31v-1.84h14.7v1.84h-6.31v22.91H888.53z"/>
			<path class="st1" d="M918.85,202.95l-4.4-11.02c-0.69,0.14-1.41,0.21-2.15,0.21h-3.33v10.81h-2.04V178.2h5.48
				c2.47,0,4.37,0.59,5.68,1.77c1.32,1.18,1.98,2.86,1.98,5.06c0,1.46-0.32,2.72-0.97,3.8c-0.65,1.07-1.58,1.9-2.81,2.48l4.78,11.65
				H918.85z M912.3,190.34c3.77,0,5.65-1.74,5.65-5.23c0-3.4-1.91-5.1-5.72-5.1h-3.22v10.33H912.3z"/>
			<path class="st1" d="M931.54,202.95V178.2h2.08v24.75H931.54z"/>
			<path class="st1" d="M945.82,202.95V178.2h5.86c2.1,0,3.75,0.54,4.96,1.61c1.2,1.07,1.8,2.57,1.8,4.49
				c0,1.32-0.32,2.46-0.95,3.41c-0.64,0.96-1.54,1.67-2.72,2.13c1.36,0.37,2.44,1.11,3.24,2.22c0.8,1.11,1.2,2.45,1.2,4.02
				c0,2.13-0.63,3.8-1.89,5.03c-1.26,1.23-2.99,1.84-5.18,1.84H945.82z M951.92,189.12c1.43,0,2.53-0.4,3.29-1.21
				c0.76-0.81,1.14-1.95,1.14-3.43c0-3-1.62-4.51-4.85-4.51h-3.64v9.15H951.92z M951.95,201.18c3.44,0,5.16-1.71,5.16-5.13
				c0-1.66-0.43-2.94-1.28-3.83c-0.86-0.89-2.08-1.33-3.67-1.33h-4.3v10.29H951.95z"/>
			<path class="st1" d="M982.18,178.2h2.08v16.39c0,2.94-0.62,5.16-1.87,6.69c-1.25,1.52-3.07,2.29-5.48,2.29
				c-2.4,0-4.23-0.76-5.48-2.29c-1.25-1.53-1.87-3.75-1.87-6.69V178.2h2.08v16.57c0,4.64,1.76,6.97,5.27,6.97s5.27-2.32,5.27-6.97
				V178.2z"/>
			<path class="st1" d="M996.04,202.95V178.2h2.08v24.75H996.04z"/>
			<path class="st1" d="M1010.32,202.95V178.2h5.68c3.03,0,5.35,1.06,6.98,3.17s2.44,5.15,2.44,9.1c0,3.97-0.87,7.05-2.62,9.22
				c-1.74,2.17-4.21,3.26-7.4,3.26H1010.32z M1015.41,201.11c2.59,0,4.54-0.89,5.86-2.67c1.32-1.78,1.98-4.41,1.98-7.9
				c0-3.44-0.62-6.05-1.87-7.83c-1.25-1.78-3.07-2.67-5.48-2.67h-3.5v21.07H1015.41z"/>
			<path class="st1" d="M1044.18,203.58c-2.77,0-4.87-1.09-6.29-3.28c-1.42-2.18-2.13-5.4-2.13-9.65c0-4.27,0.73-7.52,2.2-9.74
				c1.47-2.22,3.61-3.33,6.43-3.33c2.77,0,4.87,1.09,6.29,3.27c1.42,2.18,2.13,5.4,2.13,9.65c0,4.28-0.73,7.52-2.2,9.74
				C1049.14,202.47,1047,203.58,1044.18,203.58z M1044.25,201.74c2.15,0,3.75-0.92,4.8-2.77c1.05-1.85,1.58-4.66,1.58-8.42
				c0-3.77-0.52-6.56-1.56-8.39c-1.04-1.83-2.62-2.74-4.75-2.74c-2.15,0-3.75,0.92-4.8,2.77c-1.05,1.85-1.58,4.66-1.58,8.42
				c0,3.77,0.52,6.56,1.56,8.39C1040.54,200.83,1042.12,201.74,1044.25,201.74z"/>
			<path class="st1" d="M1076,202.95l-4.4-11.02c-0.69,0.14-1.41,0.21-2.15,0.21h-3.33v10.81h-2.04V178.2h5.48
				c2.47,0,4.37,0.59,5.68,1.77c1.32,1.18,1.98,2.86,1.98,5.06c0,1.46-0.32,2.72-0.97,3.8c-0.65,1.07-1.58,1.9-2.81,2.48l4.78,11.65
				H1076z M1069.45,190.34c3.77,0,5.65-1.74,5.65-5.23c0-3.4-1.91-5.1-5.72-5.1h-3.22v10.33H1069.45z"/>
			<path class="st1" d="M1088.68,202.95V178.2h11.96v1.84h-9.88v9.18h9.32v1.84h-9.32v10.05h10.33l-0.38,1.84H1088.68z"/>
			<path class="st1" d="M1115.65,190.75c-1.73-0.53-3.02-1.33-3.86-2.41c-0.84-1.07-1.26-2.46-1.26-4.14c0-1.27,0.28-2.41,0.83-3.41
				c0.55-1,1.34-1.79,2.36-2.36c1.02-0.57,2.19-0.85,3.54-0.85c1.83,0,3.28,0.5,4.37,1.51c1.09,1.01,1.83,2.54,2.22,4.59l-1.94,0.42
				c-0.35-1.64-0.9-2.84-1.65-3.59c-0.75-0.75-1.77-1.13-3.07-1.13c-1.43,0-2.54,0.41-3.31,1.23c-0.77,0.82-1.16,1.99-1.16,3.52
				c0,1.27,0.28,2.27,0.85,3c0.57,0.73,1.51,1.29,2.82,1.68l2.5,0.76c1.82,0.55,3.16,1.39,4,2.51c0.84,1.12,1.26,2.64,1.26,4.56
				c0,2.06-0.64,3.73-1.91,5.01c-1.27,1.28-2.93,1.92-4.99,1.92c-4.34,0-6.75-2.33-7.21-7h2.08c0.23,1.78,0.77,3.09,1.63,3.93
				c0.85,0.84,2.06,1.26,3.6,1.26c1.46,0,2.59-0.45,3.4-1.35c0.81-0.9,1.21-2.15,1.21-3.74c0-1.41-0.31-2.51-0.92-3.31
				c-0.61-0.8-1.64-1.43-3.07-1.89L1115.65,190.75z"/>
		</g>
	</g>
	<g>
		<path class="st1" d="M808.57,246.44v-1.46c1.75-1.81,3.43-3.64,5.05-5.49c1.31-1.52,2.29-2.76,2.95-3.74s1.11-1.87,1.37-2.68
			c0.26-0.81,0.39-1.67,0.39-2.59c0-1.45-0.33-2.58-1-3.37c-0.67-0.79-1.6-1.18-2.8-1.18c-2.31,0-3.77,1.48-4.39,4.43l-1.68-0.28
			c0.33-1.81,1.04-3.22,2.14-4.24c1.09-1.02,2.45-1.53,4.07-1.53c1.68,0,3.03,0.55,4.04,1.65c1.01,1.1,1.51,2.58,1.51,4.43
			c0,1.54-0.39,3.04-1.17,4.52c-0.78,1.48-2.17,3.34-4.16,5.58c-1.52,1.7-2.84,3.15-3.96,4.33h9.76l-0.34,1.62H808.57z"/>
		<path class="st1" d="M892.32,247c-2.16,0-3.76-0.92-4.8-2.76c-1.04-1.84-1.56-4.68-1.56-8.52c0-7.61,2.16-11.41,6.48-11.41
			c2.16,0,3.76,0.92,4.8,2.76c1.04,1.84,1.56,4.68,1.56,8.52C898.8,243.2,896.64,247,892.32,247z M892.35,245.38
			c1.6,0,2.76-0.77,3.48-2.32c0.72-1.55,1.08-4.03,1.08-7.43c0-2.33-0.16-4.2-0.47-5.61c-0.31-1.41-0.79-2.45-1.45-3.1
			c-0.65-0.65-1.51-0.98-2.57-0.98c-1.6,0-2.76,0.77-3.48,2.32c-0.72,1.55-1.07,4.03-1.07,7.43c0,2.33,0.16,4.2,0.47,5.61
			c0.31,1.41,0.79,2.45,1.45,3.1S891.29,245.38,892.35,245.38z"/>
		<path class="st1" d="M964.41,246.44v-1.46c1.75-1.81,3.43-3.64,5.05-5.49c1.31-1.52,2.29-2.76,2.95-3.74s1.11-1.87,1.37-2.68
			c0.26-0.81,0.39-1.67,0.39-2.59c0-1.45-0.33-2.58-1-3.37c-0.67-0.79-1.6-1.18-2.8-1.18c-2.31,0-3.77,1.48-4.39,4.43l-1.68-0.28
			c0.33-1.81,1.04-3.22,2.14-4.24c1.09-1.02,2.45-1.53,4.07-1.53c1.68,0,3.03,0.55,4.04,1.65c1.01,1.1,1.51,2.58,1.51,4.43
			c0,1.54-0.39,3.04-1.17,4.52c-0.78,1.48-2.17,3.34-4.16,5.58c-1.52,1.7-2.84,3.15-3.96,4.33h9.76l-0.34,1.62H964.41z"/>
		<path class="st1" d="M1042.33,246.44v-1.46c1.75-1.81,3.43-3.64,5.05-5.49c1.31-1.52,2.29-2.76,2.95-3.74
			c0.65-0.98,1.11-1.87,1.37-2.68c0.26-0.81,0.39-1.67,0.39-2.59c0-1.45-0.33-2.58-1-3.37c-0.67-0.79-1.6-1.18-2.81-1.18
			c-2.31,0-3.77,1.48-4.39,4.43l-1.68-0.28c0.33-1.81,1.04-3.22,2.13-4.24c1.09-1.02,2.45-1.53,4.07-1.53
			c1.68,0,3.03,0.55,4.04,1.65c1.01,1.1,1.51,2.58,1.51,4.43c0,1.54-0.39,3.04-1.17,4.52c-0.78,1.48-2.17,3.34-4.16,5.58
			c-1.52,1.7-2.84,3.15-3.96,4.33h9.76l-0.34,1.62H1042.33z"/>
	</g>
</g>
<g>
	<g>
		<path class="st4" d="M220.63,205.57h15.03c3.52,0,6.06-0.52,7.62-1.57c1.55-1.04,2.33-2.87,2.33-5.47v-7.01h-24.99V205.57z
			 M211.82,212.83v-28.56c0,0,35.27,0,33.99,0c5.79,0,8.61,4.96,8.61,7.45v6.63c-0.16,5.25-2,8.96-5.68,11.15
			c-3.75,2.21-7.18,3.33-10.27,3.33H211.82z"/>
		<path class="st4" d="M220.63,205.57h15.03c3.52,0,6.06-0.52,7.62-1.57c1.55-1.04,2.33-2.87,2.33-5.47v-7.01h-24.99V205.57z
			 M211.82,212.83v-28.56c0,0,35.27,0,33.99,0c5.79,0,8.61,4.96,8.61,7.45v6.63c-0.16,5.25-2,8.96-5.68,11.15
			c-3.75,2.21-7.18,3.33-10.27,3.33H211.82z"/>
	</g>
	<g>
		<path class="st4" d="M513.41,184.19c-3.38,0-6.15,2.76-6.15,6.18c0,3.37,2.76,6.14,6.15,6.14c3.4,0,6.16-2.76,6.16-6.14
			C519.56,186.95,516.81,184.19,513.41,184.19z M510.83,186.79v7.13h1.24v-3.19h1.21c0.56,0,0.96,0.08,1.14,0.25
			c0.17,0.14,0.25,0.42,0.32,1.23c0.05,0.57,0.13,1.12,0.27,1.71h1.31c-0.13-0.38-0.17-0.59-0.3-1.57l-0.09-0.76
			c-0.08-0.8-0.33-1.12-1.1-1.38c0.99-0.34,1.37-0.81,1.37-1.62c0-0.63-0.3-1.17-0.81-1.47c-0.49-0.24-0.94-0.34-1.91-0.34H510.83z
			 M512.07,189.79v-2.07h1.23c0.65,0,0.83,0.03,1.1,0.16c0.34,0.14,0.54,0.46,0.54,0.84c0,0.74-0.49,1.07-1.65,1.07H512.07z
			 M513.41,185.11c2.89,0,5.24,2.35,5.24,5.25c0,2.87-2.35,5.2-5.24,5.2c-2.89,0-5.23-2.33-5.23-5.2
			C508.18,187.47,510.52,185.11,513.41,185.11z"/>
		<path class="st4" d="M513.41,184.19c-3.38,0-6.15,2.76-6.15,6.18c0,3.37,2.76,6.14,6.15,6.14c3.4,0,6.16-2.76,6.16-6.14
			C519.56,186.95,516.81,184.19,513.41,184.19z M510.83,186.79v7.13h1.24v-3.19h1.21c0.56,0,0.96,0.08,1.14,0.25
			c0.17,0.14,0.25,0.42,0.32,1.23c0.05,0.57,0.13,1.12,0.27,1.71h1.31c-0.13-0.38-0.17-0.59-0.3-1.57l-0.09-0.76
			c-0.08-0.8-0.33-1.12-1.1-1.38c0.99-0.34,1.37-0.81,1.37-1.62c0-0.63-0.3-1.17-0.81-1.47c-0.49-0.24-0.94-0.34-1.91-0.34H510.83z
			 M512.07,189.79v-2.07h1.23c0.65,0,0.83,0.03,1.1,0.16c0.34,0.14,0.54,0.46,0.54,0.84c0,0.74-0.49,1.07-1.65,1.07H512.07z
			 M513.41,185.11c2.89,0,5.24,2.35,5.24,5.25c0,2.87-2.35,5.2-5.24,5.2c-2.89,0-5.23-2.33-5.23-5.2
			C508.18,187.47,510.52,185.11,513.41,185.11z"/>
	</g>
	<path class="st4" d="M376.63,135.65c2.96-0.13,3-2.48,3.01-3.46l0.03-3.14l-9.64,2.11c-0.99,0.29-3.75-0.13-3.79,3.13l-0.33,3.28
		C365.92,137.57,368.94,135.97,376.63,135.65z M379.75,141.81l-8.63,0.73c-7.3,0.1-12.67,6.1-12.67,6.1l0.7-12.05
		c0.05-12,6.98-12.19,9.17-12.65l18.07-3.67l0.18,9.73C386.57,134.33,385.97,140.8,379.75,141.81z"/>
	<path class="st4" d="M358.87,170.13l0.02-8.75c0.17-5.38,2.08-9.19,5.74-11.43c3.72-2.27,7.13-3.4,10.2-3.4h18.9L358.87,170.13z
		 M385.21,174.93h-19.79l35.86-24.18v10.22c-0.16,5.38-2.08,9.18-5.73,11.43C391.82,174.68,390.54,174.93,385.21,174.93z"/>
	<g>
		<path class="st4" d="M486.41,212.87c3.1,0,6.53-1.1,10.27-3.33c3.7-2.18,5.62-5.9,5.78-11.15V184.3h-26.62
			c-3.1,0-6.52,1.11-10.27,3.33c-3.69,2.19-5.61,5.91-5.78,11.16v14.09H486.41z M492.48,191.54v6.65c0,2.9-0.75,4.86-2.25,5.88
			c-1.53,1.04-3.98,1.57-7.34,1.57h-13.11v-6.66c0-2.9,0.75-4.85,2.25-5.87c1.53-1.05,3.98-1.57,7.34-1.57H492.48z"/>
		<path class="st4" d="M486.41,212.87c3.1,0,6.53-1.1,10.27-3.33c3.7-2.18,5.62-5.9,5.78-11.15V184.3h-26.62
			c-3.1,0-6.52,1.11-10.27,3.33c-3.69,2.19-5.61,5.91-5.78,11.16v14.09H486.41z M492.48,191.54v6.65c0,2.9-0.75,4.86-2.25,5.88
			c-1.53,1.04-3.98,1.57-7.34,1.57h-13.11v-6.66c0-2.9,0.75-4.85,2.25-5.87c1.53-1.05,3.98-1.57,7.34-1.57H492.48z"/>
	</g>
	<path class="st4" d="M328.25,174.93c-5.32,0-6.6-0.26-10.33-2.53c-3.67-2.25-5.57-6.05-5.74-11.43v-14.42h26.44
		c3.08,0,6.48,1.13,10.21,3.4c3.67,2.24,5.57,6.05,5.74,11.43l0.03,13.56H328.25z M321.11,153.96v6.23c0,2.74,0.77,4.57,2.3,5.53
		c1.57,0.96,4.08,1.46,7.52,1.46h13.43v-6.24c0-2.73-0.77-4.56-2.3-5.51c-1.56-0.97-4.08-1.46-7.51-1.46H321.11z"/>
	<path class="st4" d="M331.43,134.31c5.18,0.88,11.56,1.21,14.85,2.7v-6.04c0-5.45-7.55-6.2-7.56-6.2l-14.17-2.29l0.16,4.65
		C324.8,127.11,324.06,134.03,331.43,134.31z M329.12,141.35c-14.09-1.07-12.87-11.79-12.87-16.7l0-12.78l25.66,5.39
		c0,0,12.73,1.74,12.68,17.06v16.06c-3.03-5.68-13.45-8.05-16.5-8.05C338.09,142.35,333.45,141.57,329.12,141.35z"/>
	<g>
		<path class="st4" d="M272.91,202.11h32.69c0,0.29-0.75,0.93-2.26,1.94c-1.53,1.05-3.98,1.58-7.34,1.58h-23.09v7.24h26.61
			c3.1,0,6.52-1.11,10.28-3.33c3.69-2.18,5.61-5.9,5.78-11.16v-3.33h-32.88c0.07-0.13,0.3-0.35,0.69-0.69
			c0.42-0.32,1.01-0.75,1.76-1.27c1.53-1.04,3.98-1.56,7.34-1.56h23.09v-7.24h-26.62c-3.09,0-6.52,1.11-10.27,3.33
			c-3.69,2.18-5.61,5.91-5.78,11.16V202.11z"/>
		<path class="st4" d="M272.91,202.11h32.69c0,0.29-0.75,0.93-2.26,1.94c-1.53,1.05-3.98,1.58-7.34,1.58h-23.09v7.24h26.61
			c3.1,0,6.52-1.11,10.28-3.33c3.69-2.18,5.61-5.9,5.78-11.16v-3.33h-32.88c0.07-0.13,0.3-0.35,0.69-0.69
			c0.42-0.32,1.01-0.75,1.76-1.27c1.53-1.04,3.98-1.56,7.34-1.56h23.09v-7.24h-26.62c-3.09,0-6.52,1.11-10.27,3.33
			c-3.69,2.18-5.61,5.91-5.78,11.16V202.11z"/>
	</g>
	<g>
		<path class="st4" d="M353.22,191.56v7.05h-24.05c0-2.61,0.75-4.45,2.25-5.49c1.5-1.03,3.95-1.56,7.33-1.56H353.22z M329.17,205.79
			h24.15v7.09h8.55v-28.55h-26.65c-3.09,0-6.52,1.11-10.27,3.32c-3.68,2.18-5.6,5.89-5.77,11.14v14.08h9.97V205.79z"/>
		<path class="st4" d="M353.22,191.56v7.05h-24.05c0-2.61,0.75-4.45,2.25-5.49c1.5-1.03,3.95-1.56,7.33-1.56H353.22z M329.17,205.79
			h24.15v7.09h8.55v-28.55h-26.65c-3.09,0-6.52,1.11-10.27,3.32c-3.68,2.18-5.6,5.89-5.77,11.14v14.08h9.97V205.79z"/>
	</g>
	<g>
		<path class="st1" d="M408.17,201.87l-0.01,10.98h-42.57v-14.06c0.16-5.24,2.08-8.95,5.76-11.14c3.74-2.21,7.16-3.32,10.25-3.32
			h26.61v7.24h-23.09c-3.35,0-5.79,0.52-7.33,1.54c-1.49,1.01-2.24,2.99-2.24,5.88v6.63h24.03v-3.75h-7.91v-5.76h16.51V201.87z"/>
		<path class="st1" d="M408.17,201.87l-0.01,10.98h-42.57v-14.06c0.16-5.24,2.08-8.95,5.76-11.14c3.74-2.21,7.16-3.32,10.25-3.32
			h26.61v7.24h-23.09c-3.35,0-5.79,0.52-7.33,1.54c-1.49,1.01-2.24,2.99-2.24,5.88v6.63h24.03v-3.75h-7.91v-5.76h16.51V201.87z"/>
	</g>
	<g>
		<path class="st4" d="M267.49,212.81h-9.84v-24.78h9.84V212.81z M257.65,176.68h9.84v7.87h-9.84V176.68z"/>
		<path class="st4" d="M267.49,212.81h-9.84v-24.78h9.84V212.81z M257.65,176.68h9.84v7.87h-9.84V176.68z"/>
	</g>
	<g>
		<path class="st1" d="M440.62,198.58h1.13l1.32-0.1h0.53c1.14-0.06,1.99-0.34,2.55-0.83c0.56-0.53,0.93-1.14,1.13-1.81v-4.31
			h-25.61v7.04L440.62,198.58z M413.1,184.37h42.7v11.75c-0.16,2.23-1.32,4.32-3.48,6.27c-2.21,2.03-4.51,3.13-6.89,3.32l7.15,7.15
			h-11.54l-7.14-7.1h-5.44l-6.77,0.03v7.08h-8.57V184.37z"/>
		<path class="st1" d="M440.62,198.58h1.13l1.32-0.1h0.53c1.14-0.06,1.99-0.34,2.55-0.83c0.56-0.53,0.93-1.14,1.13-1.81v-4.31
			h-25.61v7.04L440.62,198.58z M413.1,184.37h42.7v11.75c-0.16,2.23-1.32,4.32-3.48,6.27c-2.21,2.03-4.51,3.13-6.89,3.32l7.15,7.15
			h-11.54l-7.14-7.1h-5.44l-6.77,0.03v7.08h-8.57V184.37z"/>
	</g>
</g>
<g>
	<g>
		<g>
			<path class="st1" d="M613.31,170.27c3.78,0.04,5.67,0.05,9.45,0.04c0,1.3,0,1.94,0.01,3.24c-3.8,0.01-5.7,0-9.5-0.04
				c-0.01,1.17-0.02,1.76-0.03,2.94c-0.01,0.9,0.04,2.02,0.16,3.35c0.12,1.33,0.49,2.29,1.11,2.87c0.62,0.58,1.47,0.94,2.56,1.07
				c1.09,0.13,2.09,0.21,3.02,0.24c0.93,0.03,1.72,0.06,2.37,0.11c0,0.48,0,0.72,0,1.2c-12.94-0.06-25.85-0.39-38.78-1
				c0.03-0.48,0.04-0.72,0.06-1.2c0.71,0.04,1.43,0.06,2.16,0.07c0.74,0.01,1.86-0.03,3.36-0.14c1.5-0.11,2.58-0.46,3.23-1.07
				c0.65-0.6,1.09-1.7,1.31-3.3c0.15-2.25,0.23-3.38,0.38-5.64c-9.06-0.36-18.12-0.89-27.16-1.6c0.05-0.63,0.07-0.95,0.12-1.58
				c4.38-3.13,8.94-6.83,13.62-11.06c5.05-4.56,9.97-9.44,14.62-14.39c5.02-5.35,9.28-10.18,12.79-14.42
				c2.23,0.05,3.35,0.06,5.58,0.09C613.62,143.46,613.46,156.86,613.31,170.27z M594.25,169.78c0.23-5.81,0.34-8.71,0.57-14.52
				c0.16-3.31,0.24-4.96,0.4-8.27c-1.24,1.26-3.01,3.08-5.33,5.46c-2.33,2.38-5.1,5.03-8.33,7.93c-3.23,2.9-6.55,5.59-9.94,8.07
				c3.96,0.32,5.94,0.46,9.91,0.72C586.61,169.46,589.16,169.58,594.25,169.78z"/>
			<path class="st1" d="M630.3,159.64c2.13-9.94,4.18-19.89,6.16-29.86c0.27-0.01,0.41-0.01,0.68-0.02c1.77,0.51,3.91,1,6.43,1.47
				c2.51,0.47,5.29,0.63,8.31,0.49c3.88-0.18,7.22-0.54,9.4-1.34c1.51-0.56,3.14-1.43,4.7-2.19c0.5-0.03,0.79,0.42,0.85,1.37
				c0.11,1.5-0.34,3.26-1.35,5.26c-1.01,2.01-2.83,4.17-5.5,6.46c-2.66,2.29-6.95,3.6-12.81,3.83c-2.62,0.1-4.87,0.04-6.73-0.19
				c-1.86-0.22-3.62-0.69-5.28-1.41c-0.9,4.27-1.35,6.4-2.28,10.66c2.36-2.3,4.95-3.9,7.8-4.81c2.85-0.91,6.54-1.45,11.08-1.66
				c5.73-0.26,10.87,1.04,15.51,3.94c4.64,2.9,7.21,6.89,7.61,12.05c0.51,6.46-2.17,11.69-7.79,15.66
				c-5.46,3.86-13.97,6.29-20.57,6.4c-5.9,0.1-10.95-1-14.76-3.58c-3.82-2.58-5.7-5.9-5.73-9.92c-0.01-2.11,0.88-3.95,2.67-5.52
				c1.79-1.58,3.87-2.38,6.25-2.43c2.91-0.06,5.39,0.61,7.45,2.03c2.06,1.42,3.15,3.37,3.24,5.88c0.09,2.51-0.7,4.6-2.38,6.26
				c-1.68,1.66-2.52,2.81-2.5,3.46c0.03,0.9,0.63,1.58,1.81,2.02c1.18,0.44,2.38,0.64,3.58,0.6c4.09-0.14,6.8-1.8,8.12-4.93
				c1.32-3.13,1.84-6.98,1.61-11.54c-0.25-4.86-1.35-9.1-3.27-12.73c-1.92-3.63-4.83-5.36-8.77-5.22c-3.58,0.12-6.22,1.04-7.95,2.78
				c-1.73,1.75-2.85,3.07-3.33,3.98c-0.48,0.91-0.85,1.87-1.1,2.88C631.01,159.72,630.78,159.69,630.3,159.64z"/>
		</g>
	</g>
	<g>
		<path class="st1" d="M567.75,182.94c5.79,2.3,11.58,4.6,17.61,6.99c-0.25,1.56-0.54,3.36-0.89,5.59c-2.65-0.83-5.14-1.6-7.77-2.42
			c-1.33,6.61-2.62,13.04-3.95,19.67c-3.99-1.45-7.8-2.82-11.6-4.2c0-0.17,0-0.34,0-0.51c2.28-3.28,4.59-6.52,6.8-9.87
			c0.38-0.57,0.44-1.57,0.39-2.35c-0.3-4.3-0.68-8.6-1.03-12.9C567.46,182.94,567.61,182.94,567.75,182.94z"/>
	</g>
	<g>
		<path class="st1" d="M688.68,182.94c-0.34,4.15-0.76,8.3-0.95,12.47c-0.06,1.21,0.31,2.66,0.91,3.65c1.89,3.11,3.98,6.05,6.16,9.3
			c-3.96,1.55-7.66,3-11.54,4.52c-1.35-6.75-2.64-13.18-3.97-19.78c-2.6,0.81-5.04,1.58-7.71,2.41c-0.36-2.01-0.68-3.8-1-5.55
			c5.99-2.38,11.82-4.69,17.66-7.01C688.39,182.94,688.53,182.94,688.68,182.94z"/>
	</g>
	<g>
		<path class="st1" d="M643.11,217.36c-0.12-0.16-0.27-0.23-0.47-0.21c-0.26,0.03-0.46,0.17-0.61,0.42
			c-0.14,0.25-0.2,0.55-0.17,0.89c0.03,0.34,0.16,0.69,0.39,1.05c0.23,0.36,0.55,0.66,0.94,0.89c0.17-0.66,0.2-1.5,0.1-2.53
			C643.29,217.69,643.22,217.52,643.11,217.36z"/>
	</g>
	<g>
		<path class="st1" d="M652.99,215.54c-0.64-0.64-1.11-1.2-1.43-1.67c-0.32-0.47-0.5-0.95-0.54-1.43c-0.66,0.4-1.11,1.08-1.35,2.04
			c-0.24,0.96-0.31,1.88-0.19,2.77c-0.02,0-0.03,0-0.05,0.01c0.28,0.3,0.01,1.62-0.47,2.53c0.89,0.75,2.15,1.03,3.8,0.77
			c0.9-0.14,1.53-0.41,1.88-0.8c0.35-0.39,0.48-0.82,0.4-1.27c-0.08-0.45-0.29-0.9-0.64-1.36
			C654.06,216.66,653.59,216.14,652.99,215.54z"/>
	</g>
	<g>
		<path class="st1" d="M640.48,218.68c-0.05-0.62,0.11-1.16,0.48-1.64c0.37-0.48,0.9-0.75,1.58-0.82c0.16-0.02,0.23-0.02,0.39-0.04
			c-0.27-0.73-0.59-1.33-0.96-1.8c-0.37-0.47-0.74-0.69-1.13-0.66c-0.61,0.05-1.06,0.57-1.36,1.54c-0.3,0.98-0.42,1.94-0.35,2.9
			c0.1,1.28,0.35,2.32,0.77,3.11c0.42,0.79,0.93,1.17,1.54,1.11c0.61-0.05,1.07-0.38,1.39-0.99c-0.74-0.25-1.3-0.63-1.7-1.12
			C640.75,219.78,640.53,219.25,640.48,218.68z"/>
	</g>
	<g>
		<g>
			<path class="st1" d="M613.21,208.41c-0.98,1.42-2.27,3.52-3.94,6.29c-0.4,0.66-0.61,0.99-1.02,1.65
				c2.23,0.41,4.37,1.03,6.43,1.87c-0.01-1.7,0.02-2.99,0.09-3.88c0.23-3.08,0.66-5.88,1.26-8.41
				C615.13,206.16,614.2,206.99,613.21,208.41z"/>
		</g>
		<g>
			<path class="st1" d="M678.11,195.59c-33.57,11.19-66.85,11.13-100.24,0.01c-1.68,8.77-3.29,17.21-4.93,25.78
				c36.87,12.26,73.42,12.27,110.11-0.02C681.39,212.65,679.78,204.27,678.11,195.59z M621.88,209.49c2.91-4.57,5.6,1.53,8.48-1.54
				c0.19-0.31,0.57-0.25,0.59,0.1c-2.33,4.46-6.25-1.72-8.69,1.87C621.94,210.04,621.66,209.74,621.88,209.49z M622,228.09
				c-0.47,0.39-0.89,0.57-1.28,0.56c-3.61-0.12-5.66-3.28-6.03-9.29c-2.24-0.9-4.6-1.51-7.12-1.88c-1.95,2.98-3.85,5.24-5.67,6.79
				c-1.82,1.55-3.7,2.17-5.57,1.84c-0.83-0.14-1.46-0.42-1.89-0.81c-0.43-0.39-0.6-0.79-0.52-1.2c0.36,0.14,0.7,0.24,1.01,0.29
				c1.71,0.32,3.42-0.17,5.05-1.45c1.63-1.28,3.35-3.18,5.12-5.7c-1.66-0.06-3.11,0.13-4.36,0.57c-1.25,0.44-2.21,1.17-2.87,2.19
				c-0.4-0.07-0.73-0.22-0.98-0.45c-0.25-0.23-0.35-0.5-0.29-0.82c0.04-0.2,0.14-0.39,0.31-0.57c0.9-1,2.14-1.65,3.73-1.96
				c1.59-0.32,3.35-0.36,5.31-0.16c0.44-0.66,0.66-1,1.1-1.66c1.41-2.2,2.54-3.96,3.43-5.26c0.89-1.3,1.83-2.37,2.83-3.23
				c1-0.85,2-1.25,3.03-1.18c1.12,0.08,1.83,0.23,2.12,0.47c-0.27,2.12-0.46,4.28-0.59,6.5c-0.52,9.3,1.07,14.42,4.84,15.17
				C622.7,227.29,622.47,227.7,622,228.09z M657.27,220.75c-0.95,0.79-2.21,1.31-3.77,1.56c-0.85,0.13-1.73,0.05-2.63-0.25
				c-0.9-0.3-1.71-0.7-2.43-1.21c-0.11-0.08-0.12-0.17-0.19-0.26c-0.62,0.57-1.42,0.98-2.52,1.1c-0.37,0.04-0.78,0.05-1.22,0.03
				c-0.75,0.95-1.85,1.5-3.28,1.62c-1.56,0.13-2.75-0.34-3.53-1.41c-0.17-0.23-0.25-0.48-0.38-0.72c-0.15,0.3-0.24,0.61-0.44,0.89
				c-0.8,1.08-2.08,1.67-3.82,1.73c-1.53,0.06-2.61-0.44-3.2-1.48c-0.59-1.03-0.89-2.38-0.92-4.06c-0.01-0.89,0.02-2.05,0.15-3.4
				c0.07-0.75,0.12-1.39,0.12-1.89c-0.01-0.55-0.11-0.82-0.3-0.82c-0.73,0.01-1.44,0.79-2.15,2.33c-0.71,1.54-1.31,3.29-1.8,5.23
				c-0.49,1.94-0.75,3.33-0.76,4.18c-0.34,0.04-0.63,0.06-0.87,0.05c-0.58-0.01-1.07-0.1-1.47-0.28c-0.41-0.17-0.6-0.43-0.59-0.78
				c0.12-3.75,0.18-5.62,0.3-9.37c0.1-0.06,0.31-0.09,0.63-0.08c0.48,0.01,0.96,0.09,1.44,0.22c0.48,0.14,0.72,0.3,0.71,0.51
				c-0.02,1.43-0.03,2.14-0.05,3.57c0.45-1.66,1.14-3.23,2.06-4.7c0.91-1.48,2.03-2.22,3.38-2.24c0.82-0.02,1.39,0.33,1.73,1.04
				c0.34,0.71,0.53,1.71,0.57,2.99c0.03,0.94-0.01,1.9-0.06,2.82c-0.05,1.16-0.04,2.03-0.02,2.51c0.03,0.82,0.14,1.46,0.34,1.91
				c0.2,0.45,0.52,0.67,0.96,0.65c1.19-0.05,2.05-0.54,2.57-1.47c0.47-0.84,0.67-1.68,0.67-2.51c-0.02-0.15-0.08-0.28-0.09-0.43
				c-0.05-0.8,0.09-1.6,0.4-2.41c0.31-0.81,0.8-1.5,1.47-2.08c0.67-0.58,1.49-0.9,2.48-0.99c1.31-0.11,2.36,0.3,3.18,1.24
				c0.81,0.95,1.31,2.09,1.46,3.43c0.14,1.27,0.02,2.37-0.39,3.29c0.14,0,0.32,0,0.56-0.03c1.01-0.11,1.7-0.5,2.07-1.16
				c0.38-0.66,0.25-1.91,0.4-2.21c0-0.01,0.04-0.02,0.05-0.03c-0.17-1.31,0.02-2.63,0.54-3.95c0.52-1.33,1.54-2.1,3.05-2.34
				c0.41-0.06,0.82-0.04,1.23,0.08c0.41,0.12,0.59,0.34,0.55,0.64c-0.03,0.23-0.03,0.4-0.01,0.49c0.06,0.38,0.26,0.76,0.61,1.12
				c0.34,0.36,0.85,0.78,1.49,1.27c0.85,0.65,1.51,1.24,1.98,1.75c0.47,0.51,0.77,1.08,0.89,1.74
				C658.6,219.11,658.22,219.96,657.27,220.75z"/>
		</g>
	</g>
</g>
</svg>
